{
    "name": {
        "rus": "Магический круг",
        "eng": "Magic Circle"
    },
    "level": 3,
    "school": "ограждение",
    "components": {
        "v": true,
        "s": true,
        "m": "святая вода или порошок серебра и железа, стоящий как минимум 100 зм, расходуемые заклинанием"
    },
    "url": "/spells/magic_circle",
    "source": {
        "shortName": "PHB",
        "name": "Книга игрока",
        "page": 237
    },
    "range": "10 футов",
    "duration": "1 час",
    "time": "1 минута",
    "classes": [
        {
            "name": "Волшебник",
            "url": "/classes/wizard",
            "icon": "class-wizard"
        },
        {
            "name": "Жрец",
            "url": "/classes/cleric",
            "icon": "class-cleric"
        },
        {
            "name": "Колдун",
            "url": "/classes/warlock",
            "icon": "class-warlock"
        },
        {
            "name": "Паладин",
            "url": "/classes/paladin",
            "icon": "class-paladin"
        }
    ],
    "subclasses": [
        {
            "name": "Убийца Монстров",
            "url": "/classes/ranger/monster_slayer",
            "class": "Следопыт"
        },
        {
            "name": "Домен Магии",
            "url": "/classes/cleric/arcana",
            "class": "Жрец"
        },
        {
            "name": "Дитя Рун",
            "url": "/classes/sorcerer/runechild",
            "class": "Чародей"
        }
    ],
    "races": [
        {
            "name": "Дварф (метка опеки)",
            "url": "/races/mark_of_warding"
        }
    ],
    "description": "<p>Вы создаёте из магической энергии цилиндр с радиусом 10 футов и высотой 20 футов с центром на точке на полу, видимой в пределах дистанции. Там, где цилиндр пересекает пол или другую поверхность, появляются светящиеся руны.</p><p>Выберите один или несколько видов существ из следующего списка: исчадия, небожители, нежить, феи или элементали.</p><p>Круг действует на выбранных существ следующим образом:</p><ul><li>Существа не могут добровольно войти в цилиндр немагическими средствами. Если существо пытается использовать телепортацию или межпланарное путешествие, оно должно вначале преуспеть в спасброске <span class=\"saving_throw\">Харизмы</span>.</li><li>Существо совершает с <span class=\"disadvantage\">помехой</span> броски атаки по целям, находящимся в пределах цилиндра.</li><li>Целей в цилиндре нельзя сделать <detail-tooltip type=\"screen\"><a href=\"/screens/Charmed\">очарованными</a></detail-tooltip>, <detail-tooltip type=\"screen\"><a href=\"/screens/Frightened\">испуганными</a></detail-tooltip> или одержимыми.</li></ul><p>При накладывании этого заклинания вы можете обратить его магию, чтобы существа выбранного вида не могли покинуть цилиндр, и защищены были цели, находящиеся снаружи.</p>",
    "upper": "Если вы накладываете это заклинание, используя ячейку 4 уровня или выше, длительность увеличивается на 1 час за каждый уровень ячейки выше третьего."
}